TriggerSummaryStep1                     6   0     DEBUG  +++ HLT_2mu6_bJpsimumu_L12MU6 ID#1924924067
TriggerSummaryStep1                     6   0     DEBUG  +++ HLT_2mu4_bBmumu_L12MU4 ID#3163510355
TriggerSummaryStep1                     6   0     DEBUG  +++ HLT_2mu4_bUpsimumu_L12MU4 ID#4008168535
TriggerSummaryStep1                     6   0     DEBUG  +++ HLT_2mu4_bJpsimumu_L12MU4 ID#4276347155
TrigSignatureMoniMT                                INFO HLT_2mu4_bBmumu_L12MU4        10        10        1         0         0         
TrigSignatureMoniMT                                INFO HLT_2mu4_bBmumu_L12MU4 decisions                    2         0         
TrigSignatureMoniMT                                INFO HLT_2mu4_bJpsimumu_L12MU4     10        10        1         0         0         
TrigSignatureMoniMT                                INFO HLT_2mu4_bJpsimumu_L12MU4 decisions                    2         0         
TrigSignatureMoniMT                                INFO HLT_2mu4_bUpsimumu_L12MU4     10        10        1         0         0         
TrigSignatureMoniMT                                INFO HLT_2mu4_bUpsimumu_L12MU4 decisions                    2         0         
TrigSignatureMoniMT                                INFO HLT_2mu6_bJpsimumu_L12MU6     10        10        1         0         0         
TrigSignatureMoniMT                                INFO HLT_2mu6_bJpsimumu_L12MU6 decisions                    2         0         
